[
	{
		"id": 1,
		"items": [
			"MTN_EGY-LIFE",
			"Call",
			"Pengingat Pagi",
			"pending",
			"1231231",
			"2021-12-09T09:51:37.000000Z"
		]
	},
	{
		"id": 2,
		"items": [
			"MTN_EGY-LIFE",
			"Call",
			"Pengingat Siang",
			"progress",
			"1231231",
			"2021-12-09T09:51:37.000000Z"
		]
	},
	{
		"id": 3,
		"items": [
			"MTN_EGY-LIFE",
			"Call",
			"Pengingat Sore",
			"success",
			"1231231",
			"2021-12-09T09:51:37.000000Z"
		]
	},
	{
		"id": 4,
		"items": [
			"MTN_EGY-LIFE",
			"Call",
			"Pengingat Malam",
			"failed",
			"1231231",
			"2021-12-09T09:51:37.000000Z"
		]
	}
]
